,db,schema,table,columns,java_types
0,EMR,dbo,IB_Emergency_Contact_Info,"IB_Emergency_Contact_Info_ID,IB_Emergency_Contact_Info_TS,Emergency_Contact_External_ID,Emergency_Contact_Role,Emergency_Contact_First_Name,Emergency_Contact_Middle_Initial,Emergency_Contact_Last_Name,Emergency_Contact_Suffix,Emergency_Contact_Relationship,Emergency_Contact_Street1,Emergency_Contact_Street2,Emergency_Contact_City,Emergency_Contact_State,Emergency_Contact_Zip_Code,Emergency_Contact_Phone,Emergency_Contact_Phone_Ext,Emergency_Contact_Work_Phone,Emergency_Contact_Work_Phone_Ext,Emergency_Contact_Email_Address,Emergency_Contact_Marital_Status,Emergency_Contact_Sex,Emergency_Contact_SSN,Emergency_Contact_Date_Of_Birth,Emergency_Contact_Job_Title,Emergency_Contact_Employment_Status,Emergency_Contact_Emp_External_ID,Emergency_Contact_Emp_Name,Emergency_Contact_Emp_Contact_Name,Emergency_Contact_Emp_Street1,Emergency_Contact_Emp_Street2,Emergency_Contact_Emp_City,Emergency_Contact_Emp_State,Emergency_Contact_Emp_Zip_Code,Emergency_Contact_Emp_Phone,Emergency_Contact_Emp_Phone_Ext,Emergency_Contact_Comments,IB_Patient_Info_ID,Emergency_Contact_ID,Emergency_Contact_Address_ID,Invalid_Data,Import_Status,DateTime_Updated,Emergency_Contact_Cell_Phone,Emergency_Contact_Middle_Name,Emergency_Contact_Maiden_Name,Emergency_Contact_Relationship_ID,Emergency_Contact_Match_Factor,Min_Match_Factor,IB_TimeZone_Info_ID,Tenant_ID",
1,EMR,dbo,IB_Patient_Info,"IB_Patient_Info_ID,IB_Patient_Info_TS,Patient_External_ID,Patient_First_Name,Patient_Middle_Initial,Patient_Last_Name,Patient_Suffix,Patient_Street1,Patient_Street2,Patient_City,Patient_State,Patient_Zip_Code,Patient_Phone,Patient_Phone_Ext,Patient_Work_Phone,Patient_Work_Phone_Ext,Patient_Email_Address,Patient_Sex,Patient_SSN,Patient_Date_Of_Birth,Patient_Medical_Record_No,Patient_Marital_Status,Patient_Student_Status,Patient_Employment_Status,Patient_Emp_External_ID,Patient_Emp_Name,Patient_Emp_Contact_Name,Patient_Emp_Street1,Patient_Emp_Street2,Patient_Emp_City,Patient_Emp_State,Patient_Emp_Zip_Code,Patient_Emp_Phone,Patient_Emp_Phone_Ext,Patient_Emp_Fax_Number,Patient_Emp_Email_Address,Usual_Prov_External_ID,Usual_Prov_First_Name,Usual_Prov_Middle_Initial,Usual_Prov_Last_Name,Usual_Prov_Suffix,Usual_Prov_Street1,Usual_Prov_Street2,Usual_Prov_City,Usual_Prov_State,Usual_Prov_Zip_Code,Usual_Prov_Phone,Usual_Prov_Phone_Ext,Usual_Prov_Fax_Number,Usual_Prov_Email_Address,Usual_Prov_Sex,Usual_Prov_SSN,Usual_Prov_Date_Of_Birth,Usual_Prov_Federal_ID_No,Usual_Prov_Federal_ID_Sub_No,Usual_Prov_Federal_ID_Suffix,Usual_Prov_UPIN,RefDr_External_ID,RefDr_First_Name,RefDr_Middle_Initial,RefDr_Last_Name,RefDr_Suffix,RefDr_Street1,RefDr_Street2,RefDr_City,RefDr_State,RefDr_Zip_Code,RefDr_Phone,RefDr_Phone_Ext,RefDr_Fax_Number,RefDr_Email_Address,RefDr_Sex,RefDr_SSN,RefDr_Date_Of_Birth,RefDr_Federal_ID_No,RefDr_Federal_ID_Sub_No,RefDr_Federal_ID_Suffix,RefDr_UPIN,PCP_External_ID,PCP_First_Name,PCP_Middle_Initial,PCP_Last_Name,PCP_Suffix,PCP_Street1,PCP_Street2,PCP_City,PCP_State,PCP_Zip_Code,PCP_Phone,PCP_Phone_Ext,PCP_Fax_Number,PCP_Email_Address,PCP_Sex,PCP_SSN,PCP_Date_Of_Birth,PCP_Federal_ID_No,PCP_Federal_ID_Sub_No,PCP_Federal_ID_Suffix,PCP_UPIN,Guarantor_External_ID,Guarantor_First_Name,Guarantor_Middle_Initial,Guarantor_Last_Name,Guarantor_Suffix,Guarantor_Street1,Guarantor_Street2,Guarantor_City,Guarantor_State,Guarantor_Zip_Code,Guarantor_Phone,Guarantor_Phone_Ext,Guarantor_Work_Phone,Guarantor_Work_Phone_Ext,Guarantor_Email_Address,Guarantor_Sex,Guarantor_SSN,Guarantor_Date_Of_Birth,Guarantor_Medical_Record_No,Guarantor_Marital_Status,Guarantor_Student_Status,Guarantor_Employment_Status,Guarantor_Emp_External_ID,Guarantor_Emp_Name,Guarantor_Emp_Contact_Name,Guarantor_Emp_Street1,Guarantor_Emp_Street2,Guarantor_Emp_City,Guarantor_Emp_State,Guarantor_Emp_Zip_Code,Guarantor_Emp_Phone,Guarantor_Emp_Phone_Ext,Guarantor_Emp_Fax_Number,Guarantor_Emp_Email_Address,DateTime_Exchanged,DateTime_Transformed,DateTime_Imported,Import_Status,Test_Data,Fully_Linked,Missing_Information,IB_Format_ID,Patient_ID,Account_ID,Usual_Practitioner_ID,Ref_Practitioner_ID,PCP_Practitioner_ID,Patient_Address_ID,Guarantor_Address_ID,Patient_Employer_ID,Guarantor_Employer_ID,Account_External_ID,Transfer_Required,Patient_Comments,Account_Comments,Guarantor_ID,Invalid_Data,Guarantor_Title,Patient_Title,Patient_Ethnic_Origin,Patient_Occupation,Patient_Deceased,Patient_Date_Of_Death,Patient_Relation_To_Guarantor,Patient_VIP,Patient_Ethnic_Origin_ID,Patient_Relation_To_Guarantor_ID,ExtsysPatientIndex_ID,ExtsysPatientAccount_ID,Previous_Pat_External_ID,Previous_Patient_Id,Patient_Merge_Type,IB_Import_Event_ID,DateTime_Updated,Usual_Prov_NPI,RefDr_NPI,PCP_NPI,Patient_Status,Patient_Status_Date,Patient_Cell_Phone,Guarantor_Cell_Phone,Patient_HIPAA_Consent,Patient_HIPAA_Consent_DateLastChange,Enterprise_Number,External_Patient_Contact_ID,External_Guarantor_Contact_ID,Patient_Middle_Name,Guarantor_Middle_Name,Patient_Legal_First_Name,Patient_Legal_Middle_Name,Patient_Legal_Last_Name,Patient_Legal_Suffix,Guarantor_Legal_First_Name,Guarantor_Legal_Middle_Name,Guarantor_Legal_Last_Name,Guarantor_Legal_Suffix,Guarantor_WorkAddress_ID,Patient_Race,Patient_Race_ID,Patient_Alias,Patient_Match_Factor,Guarantor_Match_Factor,Patient_Min_Match_Factor,Guarantor_Min_Match_Factor,Patient_Language,Patient_Language_ID,Patient_Language_External_ID,Patient_Race2,Patient_Race3,Patient_Race4,Patient_Race5,Patient_Race2_ID,Patient_Race3_ID,Patient_Race4_ID,Patient_Race5_ID,Force_Review,IB_TimeZone_Info_ID,Tenant_ID,Patient_IdentifiesAsSex,Patient_IdentifiesAsSex_Description,Patient_Ethnic_Origin2,Patient_Ethnic_Origin3,Patient_Ethnic_Origin4,Patient_Ethnic_Origin5,Patient_Ethnic_Origin_ID2,Patient_Ethnic_Origin_ID3,Patient_Ethnic_Origin_ID4,Patient_Ethnic_Origin_ID5",
2,EMR,HPSITE,ADDRESSES,"IMREADDR_CODE,ADDR_ADDRESS,ADDR_CITY,ADDR_STATE,ADDR_ZIP,ADDR_PHONE,ADDR_FAX,ADDR_PAGER,ADDR_CARPHONE,ADDR_EMAILADDRESS,TAG_AUTHORCODE,TAG_SYSTEMDATE,URL,ADDR_CROSSSTREET,ADDR_COUNTY,ADDR_STARTDATE,ADDR_ENDDATE",TAG_SYSTEMDATE=String
3,EMR,HPSITE,Allergen_Mappings,"Common_Allergen_Id,Common_Allergen,External_Code,External_Name,External_System",
4,EMR,HPSITE,ARCH_HXDIAGNOSIS,"HXDIAGNOSIS_ID,CONTACT_ID,PATIENT_ID,SOURCE,SOURCE_CODE,CATEGORY_CODE,TITLE,DESCRIPTION,MODIFIER_CODE,ACTIVITY_CODE,SIGNIFICANCE_CODE,ACUITY_CODE,STABILITY_CODE,INTENSITY_CODE,ONSET_DATE,ONSETDATEMASK_CODE,RESOLVED_DATE,DISABILITY,GOAL,BASIS,COMMENTS,REASONOFCHANGE,TAG_SYSTEMDATE,TAG_REVISION,DIAGNOSIS_ID,ISPROMOTED_FLAG,IMO_CODE,TERM_UID,REASON_CODE,IS_BARRIER","ONSET_DATE=String,TAG_SYSTEMDATE=String"
5,EMR,HPSITE,ARCH_LAB_RESULT,"RESULT_ID,TAG_REVISION,IMREENC_CODE,IMREDEM_CODE,OBSERVATION_ID,IMRELABCAT_CODE,IMRELABSAMPLE_CODE,RESULT_DATA_TYPE,RESULT_VALUE,RESULT_ABNORMAL,RESULT_FLAGS,RESULT_LOCATION,RESULT_NORMAL_RANGE,RESULT_UNITS,RESULT_NAME,RESULT_SEQUENCE,RESULT_COMPLETIONSTATUS,RESULT_COMPLETIONPROVID,RESULT_COMPLETIONDATE,RESULT_REVIEWEDSTATUS,RESULT_REVIEWEDPROVID,RESULT_REVIEWEDDATE,IMRENOTE_CODE,RESULT_OBSERVATIONDATE,RESULT_OBSERVATIONPROVID,RESULT_COMMENTS,RESULT_CHANGEREASON,CORRECTED,MODIFY_BY,EXTERNAL_ID,EXTERNAL_ID_NBR,TAG_SYSTEMDATE,TAG_MOSTRECENT,TAG_DELETE,RESULT_SUBID,RESULT_UPDATED","RESULT_COMPLETIONDATE=String,RESULT_REVIEWEDDATE=String,RESULT_OBSERVATIONDATE=String,TAG_SYSTEMDATE=String"
6,EMR,HPSITE,CONTACT,"IMREENC_CODE,IMRECONTACT_CODE,IMREPROV_CODE,IMRESCHED_CODE,CON_START,CON_END,CON_CUMULATIVETIME,CON_CANCELED,CON_REASON,PMSPROV_CODE,READYTOBILL,IMREPTL_CODE","CON_START=String,CON_END=String"
7,EMR,HPSITE,DEMOGRAPHICS,"IMREDEM_CODE,DEM_PRIVACYSTATUS,DEM_PREFERREDPROVIDER,DEM_CHARTID,DEM_ACCOUNTID,DEM_EXTERNALID,DEM_LASTNAME,DEM_FIRSTNAME,DEM_MIDDLEINITIAL,DEM_SEX,DEM_SSNUM,DEM_DATEOFBIRTH,DEM_BLOODTYPE,DEM_MEDICALERT,DEM_PREFLASTNAME,DEM_PREFFIRSTNAME,DEM_PREFMIDDLEINITIAL,DEM_FORMERLASTNAME,DEM_FORMERFIRSTNAME,DEM_FORMERMIDDLEINITIAL,DEM_TITLE,DEM_SUFFIX,DEM_DATEOFBIRTHMASK,DEM_LANGUAGE,DEM_MARITALSTATUS,DEM_STATUS,DEM_OCCUPATION,DEM_PATIENTTYPE,DEM_NICKNAME,DEM_HOMEADDR,DEM_OFFICEADDR,DEM_GUARDIANCODE,DEM_EMPLOYER,DEM_EMPLOYERSTATUS,DEM_RELEASEOFINFO,DEM_HCFASIGNATURE,DEM_PHARMACYCODE,DEM_ORGANDONOR,DEM_DECEASED,DEM_DATEOFDEATH,DEM_DATEOFDEATHMASK,TAG_AUTHORCODE,TAG_SYSTEMDATE,IMRENOTE_CODE,LOCK_LEVEL,DEM_REFERRINGPROVIDER,GUARANTOR_CODE,DEM_PATREL_TOGUARANTOR,DEM_VIP_INDICATOR,DEM_MAILPHARMACYCODE,BIRTH_STATECODE,BIRTH_COUNTRYCODE,DEM_PCP_NAME,DEM_TIMEOFBIRTH,DEM_NOTIFYMETHOD,DEM_INDUSTRY,DEM_IDENTIFIESAS,DEM_PREFERREDGENDERPRONOUNSEX,DEM_MEDICALSEX,DEM_ADMINISTRATIVESEX,DEM_SEXUALORIENTATION","TAG_SYSTEMDATE=String,DEM_TIMEOFBIRTH=String"
8,EMR,HPSITE,DICTIONARIES_SITE,"DICT_TYPE,DICT_CODE,DICT_DESCRIPTION,DICT_EXTRAINFORMATION,DICT_ORDER,DICT_TABLE,DICT_ARCHIVED,TAG_SYSTEMDATE",TAG_SYSTEMDATE=String
9,EMR,HPSITE,DX,"IMREDX_CODE,IMRECONTACT_CODE,IMREDEMEC_CODE,DX_SOURCE,DX_TITLE,DX_CODE,DX_DESCRIPTION,DX_MODIFIER,DX_ACTIVITY,DX_SIGNIFICANCE,DX_ACUITY,DX_STABILITY,DX_INTENSITY,DX_ONSETDATE,DX_RESOLVEDDATE,DX_DISABILITY,DX_GOAL,DX_BASIS,DX_REASONOFCHANGE,DX_COMMENT,DX_CATEGORY,DX_ONSETDATEMASK,TAG_SYSTEMDATE,TAG_REVISION,ISPROMOTED_FLAG,DX_STORY,INCLUDECOMMENTS_FLAG,INCLUDESTORY_FLAG,IMO_CODE,TERM_UID,V24ENDSPREGNANCY_FLAG,IS_BARRIER",TAG_SYSTEMDATE=String
10,EMR,HPSITE,ENCOUNTER,"IMREENC_CODE,IMRESITE_CODE,IMREPROV_CODE,IMREDEMEC_CODE,IMREFASTTRACK_CODE,ENC_VISITTYPE,ENC_INITIATE,ENC_SCREENCODE,ENC_CHARTPULLTIME,ENC_ADDENDUMCOUNT,ENC_CHARTFILEDTIME,ENC_BILLINGEXP,ENC_BILLLEVEL,ENC_SIGNED,ENC_PRIVATEFLAG,ENC_CHARTOPENREASON,ENC_DATACOLLECTIONDATE,ENC_BILLINGPROV_CODE,ENC_REVIEW_SW,ENC_FLOWSHEETINCLUDEHP_SW,LOCATION_ID,LOCK_LEVEL,ORA_SESSIONID,BILL_MODIFIER1,BILL_MODIFIER2,ENC_SIGNATURECONTACTCODE,ENC_DIAGNOSES,COSIGNREQUESTED_FLAG,COSIGNCAREGIVER_ID,COSIGN_DATETIME,COSIGNINCLUDEBITMAP_FLAG,RECORDCAREGIVER_ID,COMPLETEDCONTACT_ID,BILL_MODIFIER3,BILL_MODIFIER4,ENC_BILLLEVEL2","ENC_CHARTPULLTIME=String,ENC_CHARTFILEDTIME=String,COSIGN_DATETIME=String"
11,EMR,HPSITE,ENCOUNTER_ASSESSMENT,"ASSESSMENT_ID,CONTACT_ID,ENCOUNTER_ID,DX_ID,DX_REVISION,SORTORDER",
12,EMR,HPSITE,HX,"ENCOUNTER_ID,CONTACT_ID,SOURCE,SOURCE_ID,SORTORDER,SOURCE_REVISION",
13,EMR,HPSITE,HX_DIAGNOSIS,"HXDIAGNOSIS_ID,DIAGNOSIS_ID,CONTACT_ID,PATIENT_ID,SOURCE,SOURCE_CODE,CATEGORY_CODE,TITLE,DESCRIPTION,MODIFIER_CODE,ACTIVITY_CODE,SIGNIFICANCE_CODE,ACUITY_CODE,STABILITY_CODE,INTENSITY_CODE,ONSET_DATE,ONSETDATEMASK_CODE,RESOLVED_DATE,DISABILITY,GOAL,BASIS,COMMENTS,REASONOFCHANGE,TAG_SYSTEMDATE,TAG_REVISION,ISPROMOTED_FLAG,IMO_CODE,TERM_UID,REASON_CODE,IS_BARRIER","ONSET_DATE=String,TAG_SYSTEMDATE=String"
14,EMR,HPSITE,HX_MEDICATION,"HXMEDICATION_ID,MEDICATION_ID,CONTACT_ID,PATIENT_ID,SOURCE,SOURCE_CODE,GPI,TITLE,ORIGINALTITLE,START_DATE,STARTDATEMASK_CODE,END_DATE,ENDDATEMASK_CODE,DURATION,DURATIONUNIT_CODE,ACTIVITY_CODE,DOSE,DOSEUNIT,DOSEUNKNOWN_FLAG,INTAKE,FREQUENCY,ROUTE,COMMENTS,REASONOFCHANGE,TAG_SYSTEMDATE,TAG_REVISION,ISREASONBARRIER",TAG_SYSTEMDATE=String
15,EMR,HPSITE,IMMUNIZATION_RECORD,"IMMREC_ID,PATIENT_ID,IMMUNIZATION_ID,CONTACT_ID,PROCEDURE_ID,STATUS_CODE,ENTERED_DATE,ENTEREDBYCAREGIVER_ID,COMPLETED_DATE,COMPLETEDBYCAREGIVER_ID,FACILITY_CODE,REASONFORNON_CODE,GIVEN_DATE,GIVEN_DATEMASK,GIVENBYCAREGIVER_ID,COMMENT,DOSE_VALUE,DOSE_UNITS,LOT_NUMBER,EXPIRATION_DATE,EXPIRATION_DATEMASK,MVX_CODE,INJECTIONROUTE_CODE,INJECTIONSITE_CODE,INFORMEDCONSENT_FLAG,PATIENTPOSITIVEID_FLAG,HISTORICAL_FLAG,TAG_SYSTEMDATE,TAG_CAREGIVERID,VACCINE_ELIGIBILITY_CODE,REMINDERCONTACT_CODE,REMINDERCONTACT_SOURCE,REMINDER_PARTICIPATION_FLAG,PUBLICFUNDING_FLAG,ADVERSE_REACTION_FLAG,ADVERSE_REACTION_DETAILS,DRUG_CODE,REASONFORNON_CONTRAID,NDC,HISTORY_FACNAME,DO_NOT_PARTICIPATE_IN_VFC_FLAG","ENTERED_DATE=String,COMPLETED_DATE=String,GIVEN_DATE=String,TAG_SYSTEMDATE=String"
16,EMR,HPSITE,IMMUNIZATIONS,"IMMUNIZATION_ID,IMMUNIZATION_NAME,ORIGIN_FLAG,SERIES_FLAG,COMMON_NAME,CPT_CODE,CVX_CODE,STANDARD_FLAG,DOSE_VALUE,DOSE_UNITS,INJECTIONROUTE_CODE,INJECTIONSITE_CODE,ARCHIVE_FLAG,COMPATIBILITY_FLAG,SHOWLASTADMIN_FLAG,AGE_FROM,AGE_TO,AGE_TYPE,HCPC_CODE",
17,EMR,HPSITE,INSURANCES,"IMREDEM_CODE,IMREINS_CODE,INS_RANK,IMRECARRIER_CODE,INS_GROUPNUMBER,INS_PLANNUMBER,INS_ENROLLMENTID,INS_ENROLLMENTDATE,INS_TERMINATIONDATE,TAG_AUTHORCODE,TAG_SYSTEMDATE,IMRENOTE_CODE,INS_PLANTYPE,INS_WC_FLAG,INS_SUBFIRSTNAME,INS_SUBLASTNAME,INS_SUBMIDDLEINITIAL,INS_PATREL_TOSUB,INS_SUBDATEOFBIRTH,INS_SUBSSNUM,TAG_ARCHIVED,SUBSCRIBER_HOMEADDRESS_ID,SUBSCRIBER_WORKADDRESS_ID,INS_SUBTITLE,INS_SUBSUFFIX,INS_SUBSEX,COVERAGE_TYPE",TAG_SYSTEMDATE=String
18,EMR,HPSITE,INSURANCECARRIERS,"IMRECARRIER_CODE,CARRIER_NAME,CARRIER_TYPE,CARRIER_ADDRCODE,CARRIER_REPRESENTATIVE,TAG_AUTHORCODE,TAG_SYSTEMDATE,TAG_ARCHIVED,CARRIER_EXTERNALID,FORMULARY_ORGID",TAG_SYSTEMDATE=String
19,EMR,HPSITE,LAB_RESULT,"RESULT_ID,IMREENC_CODE,IMREDEM_CODE,OBSERVATION_ID,IMRELABCAT_CODE,IMRELABSAMPLE_CODE,RESULT_DATA_TYPE,RESULT_VALUE,RESULT_ABNORMAL,RESULT_FLAGS,RESULT_LOCATION,RESULT_NORMAL_RANGE,RESULT_UNITS,RESULT_NAME,RESULT_SEQUENCE,RESULT_COMPLETIONSTATUS,RESULT_COMPLETIONPROVID,RESULT_COMPLETIONDATE,RESULT_REVIEWEDSTATUS,RESULT_REVIEWEDPROVID,RESULT_REVIEWEDDATE,IMRENOTE_CODE,RESULT_OBSERVATIONDATE,RESULT_OBSERVATIONPROVID,RESULT_COMMENTS,RESULT_CHANGEREASON,CORRECTED,MODIFY_BY,EXTERNAL_ID,EXTERNAL_ID_NBR,TAG_SYSTEMDATE,RESULT_SUBID,RESULT_UPDATED,RESULT_ANNOTATECODE,RESULT_LINK_TYPE","RESULT_COMPLETIONDATE=String,RESULT_REVIEWEDDATE=String,RESULT_OBSERVATIONDATE=String,TAG_SYSTEMDATE=String"
20,EMR,HPSITE,LOCATION,"LOCATION_ID,IMREADDR_CODE,EXTSYSDATABASE_ID,PMS_LOCATIONID,LOCATION_NAME,LOCATION_CONTACT,LOCATION_CONTACTPHONE,ACTIVE_SW,SCAN_TEMPDIRECTORY,SCAN_DEFAULT_IMPORTDIRECTORY,FAX_SERVER,SCAN_MASSSTORAGEDIRECTORY,URL_ID,MED_HISTORY_CONSENT_FLAG,IMMREG_STATE,IMMREG_PRIMARYID,IMMREG_SECONDARYID,SERVICEAREAZIPLIST,DEFAULT_ENCOUNTER_TYPE,CANREG_STATE,CANREG_PRIMARYID,CANREG_SECONDARYID,SYNREG_STATE,SYNREG_FACILITYNPI,SYNREG_FACILITYID,SYNREG_FACILITYTYPE,IMMREG_FACILITYSHORTNAME,SYNREG_OVERRIDECONSENT,IMMREG_BIDIRECTIONAL,TIMEZONE_ID,OBSERVE_DST_FLAG",
21,EMR,HPSITE,LOCATION_ROOM,"ROOM_ID,ROOM_ABBR_TEXT,ROOM_TEXT,ARCHIVED_FLAG,LOCATION_ID",
22,EMR,HPSITE,MEDICATIONS,"IMREMED_CODE,IMRECONTACT_CODE,IMREDEMEC_CODE,MED_CODE,MED_EDUCATIONRECEIVED,MED_DATEORDERED,MED_STARTDATE,MED_CONTINUOUS,MED_ENDDATE,MED_STATUS,MED_COMPLIANT,MED_INTERACTIONWARNINGGIVEN,MED_DISPENSEASWRITTEN,MED_DOSE,MED_ROUTE,MED_FREQUENCY,MED_REFILLS,MED_COMMENT,MED_HISTORY,MED_QUANTITY,MED_SOURCE,MED_QUANTITYUNIT,MED_REFILLQUANTITY,MED_GPI,MED_INTAKE,MED_TIMEUNIT,MED_STARTDATEMASK,MED_ENDDATEMASK,MED_DATEORDERMASK,MED_TITLE,TAG_COMMIT,TAG_SYSTEMDATE,TAG_REVISION,MED_ORIGINALTITLE,MED_DOSEUNKNOWN,MED_REFILLQUANTITYTEXT,MED_QUANTITYTEXT,MED_SAMPLESGIVEN,MED_DOSEUNIT,MED_STATUSCHANGEREASON,IMRERXTMPL_CODE,MED_DAYS,PHARMACY_ID,MED_USELICENSE,MED_USESIGNATURE,MED_OUTPUTOPERATION,ORDEREDFORCAREGIVER_ID,APPROVERCAREGIVER_ID,SAMPLELOT_NUMBER,SAMPLEEXPIRATION_DATE,MEDICALLYNECESSARY_FLAG,MAIL_DAYS,MAIL_REFILLS,MAIL_COMMENT,MAIL_QUANTITY,MAIL_QUANTITYTEXT,MAIL_REFILLQUANTITY,MAIL_REFILLQUANTITYTEXT,MAIL_CONTINUOUS,MAIL_PHARMACY_ID,MAIL_USELICENSE,MAIL_USESIGNATURE,MAIL_OUTPUTOPERATION,LOCAL_FLAG,MAIL_FLAG,MED_BASEDON,SUPERVISOR_ID,EPAREQUEST_ID,MED_MAXDAILYDOSE,MED_DELIVERY,MED_SIG_ID",TAG_SYSTEMDATE=String
23,EMR,HPSITE,PATIENT_CONTACTS,"PATCON_CODE,IMREDEM_CODE,PATCON_RANK,PATCON_LASTNAME,PATCON_FIRSTNAME,PATCON_MIDDLENAME,PATCON_MAIDENNAME,PATCON_EMERGENCY,PATCON_ADDRESS,PATCON_RELATIONSHIP,PATCON_RELATIONSHIPCODE,IMRENOTE_CODE,PATCON_HEALTHCAREPROXY",
24,EMR,HPSITE,PATIENT_ETHNICITY,"ETHNICITY_ID,PATIENT_ID,ETHNICITY_CODE,TAG_SYSTEMDATE,TAG_AUTHORCODE",TAG_SYSTEMDATE=String
25,EMR,HPSITE,PATIENT_PHYSICIANS,"PATIENT_PHYSICIAN_ID,PATIENT_ID,PROVIDER_ID,PHYSICIAN_ROLE_CODE,ADDED_DATE,TAG_SYSTEMDATE","ADDED_DATE=String,TAG_SYSTEMDATE=String"
26,EMR,HPSITE,PATIENT_RACE,"RACE_ID,PATIENT_ID,RACE_CODE,TAG_SYSTEMDATE,TAG_AUTHORCODE",TAG_SYSTEMDATE=String
27,EMR,HPSITE,PROCEDURES,"IMREPROC_CODE,IMRECONTACT_CODE,IMREDEMEC_CODE,PROC_TITLE,PROC_CODE,PROC_SOURCE,PROC_SOURCECATEGORY,PROC_TYPE,PROC_NOTIFICATIONPRIORITY,PROC_COLLECTEDDATE,PROC_COMPLETIONSTATUS,PROC_COMPLETIONDATE,PROC_COMPLETIONPROVCODE,PROC_REVIEWEDPROVCODE,PROC_REVIEWEDDATE,PROC_REVIEWEDSTATUS,PROC_RESULTNOTECODE,TAG_SYSTEMDATE,PROC_COMMENT,PROC_BILLING,PROC_CONTACTPROVCODE,IMREDX_CODE,PROC_MODIFIER1,PROC_MODIFIER2,RULE_ID,PROC_NOTIFYPROVCODE,ABNORMAL,ADDENDUM_NOTECODE,HXDIAGNOSIS_ID,PATIENT_REPORTED_IND,ORDEREDFOR_CAREGIVER_ID,PROC_UNITS,NOTIFYSETBYCAREGIVER_ID,INHOUSE_FLAG,FUTUREPLAN_ID,IMO_CODE,TERM_UID,PROCREQ_CODE,PROCORDER_EXTERNALSOURCE,MODIFY_BY,PROCORDER_EXTERNALORDERID,PROCORDER_EXTTESTID,PROCCAT_CODE,PROCREQ_SEQ,PROC_ORDERDATE,CANCELREASON","PROC_COLLECTEDDATE=String,PROC_COMPLETIONDATE=String,PROC_REVIEWEDDATE=String,TAG_SYSTEMDATE=String,PROC_ORDERDATE=String"
28,EMR,HPSITE,PROVIDERS,"IMREPROV_CODE,PROV_ID,PROV_LASTNAME,PROV_FIRSTNAME,PROV_MIDDLEINITIAL,PROV_LOGINNAME,PROV_SSNUM,PROV_TYPE,PROV_ACTIVITY,PROV_PASSWORD,PROV_LASTPASSWORDCHANGE,PROV_DEAEXPIRE,PROV_ADDRCODE,PROV_SPECIALTY,PROV_TITLE,PROV_SUFFIX,PROV_UPIN,PROV_DEAID,PROV_NHLID,PROV_REFERRAL,PROV_LOGINCOUNT,PROV_AGREETOLICENSE,PROV_LICENSETYPE,PROV_LOGINATTEMPTS,TAG_AUTHORCODE,TAG_SYSTEMDATE,TAG_ARCHIVED,PROV_REFILLMGR,PROV_BILLING_SW,PROV_CHARTREVIEWER,BLOCKLABLINKMSG_SW,PROV_CANREVIEWCHARTS_SW,PROV_EDIID,PROV_INITIALS,NPI,SIGNOFFPRIVILEGE_CODE,PROV_SERVICELEVEL,BLOCKINBOXMSG_SW",TAG_SYSTEMDATE=String
29,EMR,HPSITE,REFERRALS,"IMREREF_CODE,IMRECONTACT_CODE,IMREDEMEC_CODE,REF_TITLE,REF_CODE,REF_SOURCE,REF_SPECIALTY,REF_COMPLETIONSTATUS,REF_CONSULTATIONREASON,REF_RECEIVESTATUS,REF_ADVISEASTODIAGNOSIS,REF_SUGGESTTREATMENT,REF_ASSUMEMANAGEMENT,REF_CANREFERELSEWHERE,REF_CALLWHENPATIENTSEEN,REF_CALLWHENPROCEDURE,REF_ORDERNOTECODE,REF_REVIEWPROVCODE,REF_REVIEWDATE,REF_REVIEWNOTECODE,REF_COMMENT,TAG_SYSTEMDATE,REF_PRINTEDOUT,REF_REVIEWEDSTATUS,REF_COMPLETIONDATE,REF_CONTACTPROVCODE,REF_INCLUDESIGNATURE,REF_ORDERDATE,REF_URGENCY,REF_REQUIREDDATE,REF_ACTUALCAREGIVERID,REF_APPOINTMENTDATE,REF_INSSTATUS,REF_SUBSTATUS,REF_SELFREF,REF_INTERNAL_COMMENT,REF_ORDEREDFORCAREGIVERID","REF_REVIEWDATE=String,TAG_SYSTEMDATE=String,REF_COMPLETIONDATE=String,REF_ORDERDATE=String,REF_APPOINTMENTDATE=String"
30,EMR,HPSITE,SITES,"IMRESITE_CODE,SITE_NAME,SITE_REPRESENTATIVE,SITE_ADDRCODE,SITE_TYPE,SITE_DATABASEVERSION,SITE_PROGRAMVERSION,SITE_MAINRECORD,SITE_CONNECTSTRING,SITE_REMOTEDIAL,SITE_NETWORKACCESS,SITE_PMSID,SITE_MAXGRACE,SITE_PASSFORCE,SITE_MAXCONCUR,SITE_SAVEPRINT,SITE_SAVEPROMPT,SITE_ORDERPRINT,SITE_LOGINRETRIES,SITE_ALLOWDEM,SITE_DISPMEDS,SITE_ALLOWSCHED,TAG_AUTHORCODE,TAG_SYSTEMDATE,SITE_LOGACTIVITY,SITE_CHANGEHP,SITE_CHANGECC,SITE_LICENSEKEY,SITE_DEFAULTENCOUNTER,SITE_LOGONOTECODE,SITE_SIGPROMPT,SITE_HIDERXTMPLSTATE,SITE_BILLLABS_SW,SITE_DEFAULTREVIEWSECTIONS_SW,MASSSTORAGEDIRECTORY,SITE_INTERWARN_DD,SITE_INTERWARN_DF,SITE_INTERWARN_DA,SITE_SAVEEREFILLPASSWORD,SITE_DRUGSCHEDULE,SITE_CONCURRENTENCOUNTERS,CK_PASSREUSEDAYS,CK_PASSREUSETIMES,REUSEDAYS,REUSETIMES,CK_DUALBILLING,TIMEZONE_ID,OBSERVE_DST_FLAG",TAG_SYSTEMDATE=String
31,EMR,HPSITE,TERMINOLOGY_ATTRIBUTES,"TERM_UID,TERM_SOURCECODE,TERM_DESCRIPTION,TERM_ATTRIBUTES",
32,EMR,hpsystem,DICTIONARIES_MASTER,"DICT_TYPE,DICT_CODE,DICT_DESCRIPTION,DICT_EXTRAINFORMATION,DICT_ORDER,DICT_TABLE,DICT_ARCHIVED,TAG_SYSTEMDATE",TAG_SYSTEMDATE=String
33,EMR,hpsystem,MVX_CODESET,"MVX_CODE,SHORT_NAME,ACTIVE_FLAG,MANUFACTURER",
34,EMR,hpsystem,STATES,"STATE_CODE,STATE_NAME,FIPS_CODE",
35,MEDISPAN,MDDB,MEDNAME,"DRUG_DESCRIPTOR_ID,DRUG_NAME,ROUTE_OF_ADMINISTRATION,DOSAGE_FORM,STRENGTH,STRENGTH_UNIT_OF_MEASURE,BIOEQUIVALENCE_CODE,CONTROLLED_SUBSTANCE_CODE,EFFICACY_CODE,LEGEND_INDICATOR_CODE,GENERIC_CODE,BRAND_NAME_CODE,NAME_SOURCE_CODE,GENERIC_PRODUCT_ID,KNOWLEDGE_BASE_DRUG_CODE,NEW_DRUG_DESCRIPTOR_ID,SCREENABLE_FLAG,KNOWLEDGE_BASE_DRUG_CODE_FLAG,RESERVE,TRANSACTION_CODE,LAST_CHANGE_DATE,DRUG_TITLE",
36,MEDISPAN,MOMD,MOMRTE,"ROUTE_ID,COUNTRY_CODE,LANGUAGE_CODE,TRANSACTION_CODE,ROUTE_ABBREVIATION,ROUTE_DESCRIPTION,RESERVE",
